<!-- inject:svg --><svg xmlns="http://www.w3.org/2000/svg" xmlns:xlink="http://www.w3.org/1999/xlink"><defs><style>.a{fill:rgba(229,229,229,0.61);}</style></defs><symbol id="icon-arrow" viewBox="0 0 26.064 13.847"><path class="a" d="M15.509,34.955a.814.814,0,0,0,1.152,0L28.878,22.737a.814.814,0,0,0,0-1.152L16.66,9.368a.814.814,0,0,0-1.152,1.152L27.15,22.161,15.509,33.8A.814.814,0,0,0,15.509,34.955Z" transform="translate(35.193 -15.27) rotate(90)"/></symbol><symbol id="icon-burger" viewBox="0 0 22.31 14.63">
  <g id="Group_598" data-name="Group 598" transform="translate(-29.322 -37.97)">
    <path id="path" d="M38.226,24.471h-19.5a1.407,1.407,0,0,0,0,2.814h19.5a1.407,1.407,0,0,0,0-2.814Z" transform="translate(12 19.408)" fill="#fff"/>
    <path id="path-2" data-name="path" d="M38.226,20.271h-19.5a1.407,1.407,0,0,0,0,2.814h19.5a1.407,1.407,0,0,0,0-2.814Z" transform="translate(12 17.699)" fill="#fff"/>
    <path id="path-3" data-name="path" d="M38.226,28.67h-19.5a1.407,1.407,0,0,0,0,2.814h19.5a1.407,1.407,0,0,0,0-2.814Z" transform="translate(12 21.116)" fill="#fff"/>
  </g>
</symbol><symbol id="icon-checkmark" viewBox="0 0 32.001 22">
  <path id="CHECK_MARK" data-name="CHECK MARK" d="M40.267,14.628,20.974,33.921l-9.293-9.293a1,1,0,0,0-1.414,1.414l10,10a1,1,0,0,0,1.414,0l20-20a1,1,0,0,0-1.414-1.414Z" transform="translate(-9.974 -14.335)"/>
</symbol><symbol id="icon-clock" viewBox="0 0 17.146 17.146">
  <g id="Group_605" data-name="Group 605" transform="translate(-153.172 -1386.474)">
    <path id="path" d="M16.346,25.282a8.073,8.073,0,1,0-8.073-8.073A8.082,8.082,0,0,0,16.346,25.282Zm0-15.137a7.064,7.064,0,1,1-7.064,7.064A7.072,7.072,0,0,1,16.346,10.145Z" transform="translate(145.399 1377.838)" fill="#ccc" stroke="rgba(129,15,15,0)" stroke-width="1"/>
    <path id="path-2" data-name="path" d="M26.531,22.554a.5.5,0,1,0,.713-.713l-2.962-2.962V13.431a.5.5,0,1,0-1.009,0v5.656a.5.5,0,0,0,.148.357Z" transform="translate(137.967 1375.961)" fill="#ccc" stroke="rgba(129,15,15,0)" stroke-width="1"/>
  </g>
</symbol><symbol id="icon-filter" viewBox="0 0 15.345 10.23">
  <path id="path" d="M3,16.23H8.115V14.525H3ZM3,6V7.705H18.345V6Zm0,5.968H13.23V10.263H3Z" transform="translate(-3 -6)" fill="#fff"/>
</symbol><symbol id="icon-inst" viewBox="0 0 512 512.00006"><path d="m261.039062 512c-1.695312 0-3.390624 0-5.097656-.007812-40.132812.097656-77.214844-.921876-113.277344-3.117188-33.0625-2.011719-63.242187-13.4375-87.28125-33.039062-23.195312-18.914063-39.035156-44.488282-47.078124-76.003907-7-27.4375-7.371094-54.371093-7.726563-80.421875-.257813-18.691406-.5234375-40.839844-.578125-63.363281.0546875-22.617187.320312-44.765625.578125-63.457031.355469-26.046875.726563-52.980469 7.726563-80.421875 8.042968-31.515625 23.882812-57.089844 47.078124-76.003907 24.039063-19.601562 54.21875-31.027343 87.285157-33.039062 36.0625-2.191406 73.152343-3.2148438 113.371093-3.1171875 40.144532-.0859375 77.214844.9257815 113.277344 3.1171875 33.0625 2.011719 63.242188 13.4375 87.28125 33.039062 23.199219 18.914063 39.035156 44.488282 47.078125 76.003907 7 27.4375 7.371094 54.375 7.726563 80.421875.257812 18.691406.527344 40.839844.578125 63.363281v.09375c-.050781 22.523437-.320313 44.671875-.578125 63.363281-.355469 26.046875-.722656 52.980469-7.726563 80.421875-8.042969 31.515625-23.878906 57.089844-47.078125 76.003907-24.039062 19.601562-54.21875 31.027343-87.28125 33.039062-34.535156 2.101562-70.011718 3.125-108.277344 3.125zm-5.097656-40.007812c39.480469.09375 75.730469-.902344 110.945313-3.042969 25-1.519531 46.675781-9.632813 64.433593-24.113281 16.414063-13.386719 27.71875-31.855469 33.597657-54.894532 5.828125-22.839844 6.164062-47.363281 6.488281-71.078125.253906-18.566406.519531-40.558593.574219-62.863281-.054688-22.308594-.320313-44.296875-.574219-62.863281-.324219-23.714844-.660156-48.238281-6.488281-71.082031-5.878907-23.039063-17.183594-41.507813-33.597657-54.894532-17.757812-14.476562-39.433593-22.589844-64.433593-24.109375-35.214844-2.144531-71.464844-3.132812-110.851563-3.046875-39.472656-.09375-75.726562.902344-110.941406 3.046875-25 1.519531-46.675781 9.632813-64.433594 24.109375-16.414062 13.386719-27.71875 31.855469-33.597656 54.894532-5.828125 22.84375-6.164062 47.363281-6.488281 71.082031-.253907 18.582031-.519531 40.585937-.574219 62.910156.054688 22.226563.320312 44.234375.574219 62.816406.324219 23.714844.660156 48.238281 6.488281 71.078125 5.878906 23.039063 17.183594 41.507813 33.597656 54.894532 17.757813 14.476562 39.433594 22.589843 64.433594 24.109374 35.214844 2.144532 71.476562 3.144532 110.847656 3.046876zm-.953125-90.992188c-68.921875 0-125-56.074219-125-125s56.078125-125 125-125c68.925781 0 125 56.074219 125 125s-56.074219 125-125 125zm0-210c-46.867187 0-85 38.132812-85 85s38.132813 85 85 85c46.871094 0 85-38.132812 85-85s-38.128906-85-85-85zm139-80c-16.566406 0-30 13.429688-30 30s13.433594 30 30 30c16.570313 0 30-13.429688 30-30s-13.429687-30-30-30zm0 0"/></symbol><symbol id="icon-logo" viewBox="0 0 186 142">
  <g id="Group_466" data-name="Group 466" transform="translate(-1664 -945)">
    <rect id="Rectangle_203" data-name="Rectangle 203" width="186" height="142" transform="translate(1664 945)" fill="#e92626"/>
    <text id="map" transform="translate(1711 1061.183)" fill="#fff" font-size="31" font-family="Roboto-Light, Roboto" font-weight="300" letter-spacing="0.5em"><tspan x="0" y="0">map</tspan></text>
    <path id="Path_159" data-name="Path 159" d="M1.162,0S7.935-40.677,8.667-43.367s1.894-2.153,1.894-4.919S9.03-51.6,9.667-54.429s4.767-4.279,4.767-4.279-1.151,3.774-.075,6.733,5.271,1.809,6.451-2.454-2.046-8.279-2.046-8.279,4.386,1.031,5.571,4.015,1.845,2.8,2.136,5.407-1.036,2.821-.971,5,.436,3.964,1.232,3.714.795-3.286,1.951-4.714,1.256.036,2.674-1a6.586,6.586,0,0,0,2-3.143,29.449,29.449,0,0,1,2.268,9.772c.161,4.471,1.319,3.724,1.534,8.957a63.531,63.531,0,0,1-.672,11.974l-.328,2.353A26,26,0,0,1,32.213-9.755a21.232,21.232,0,0,1-7.878,7.193A22.259,22.259,0,0,1,13.731,0Zm13.82-37.291L9.561-6.017l4.349.03a13.549,13.549,0,0,0,9.784-3.738,17.953,17.953,0,0,0,4.989-10.321,34.8,34.8,0,0,0,.566-7.893A10.625,10.625,0,0,0,26.732-34.7a8.423,8.423,0,0,0-6.24-2.562ZM64.549-25.615a13,13,0,0,0-2.77-.3,8.265,8.265,0,0,0-7.387,3.842L50.521,0H43.462l5.57-32.228a10.055,10.055,0,0,1-.921-5.063,9.911,9.911,0,0,1,2.41-4.521s-.164,2.754.486,3.672,3.008-2.071,2.116,0-.557,3.19,0,3.44,1.894-.247,1.894-.247a20.73,20.73,0,0,0,2.116-2.344c.863-1.168.947-2.029,1.671-4.521s2.417-4.1,2.975-4.171c.382-.048-.924,3.787,0,5.9a6.8,6.8,0,0,0,2.149,2.939c1.448,1.56,1.425,4.7,1.425,4.7Zm4.562,3.821c.145-2.718.579-5.684.579-5.684s.469-2.657,1.154-5.442,2.726-7.133,2.6-3.739a4.7,4.7,0,0,0,3.39,4.832c1.016.4,1.369-1.353,2.563-2.872s-.144-2.773.523-7.112,2.862-5.773,2.862-5.773-.465,3.463.912,5.4,2.331,1.75,3.285,4.04.518,3.44,1.605,3.44,1.592-.819,1.742-2.44,1.9-2.207,1.9-4.053A10.092,10.092,0,0,0,91.153-45.1a10.239,10.239,0,0,1,3.176,2.1,12.293,12.293,0,0,1,2.46,4.57c.6,1.472.9,1.107,1.483,3.736a25.624,25.624,0,0,1,.847,5.778,37.015,37.015,0,0,1,0,6.851c-.212,3.113-.726,4.272-.847,5.6a21.6,21.6,0,0,1-2.785,9.055,16.464,16.464,0,0,1-5.9,6.031A14.669,14.669,0,0,1,81.621.6a12.252,12.252,0,0,1-7.1-2.189,12.283,12.283,0,0,1-4.393-5.838,18.393,18.393,0,0,1-1.013-8.176S68.967-19.077,69.112-21.794Zm7.029,9.642a8.509,8.509,0,0,0,1.653,5.019,5.289,5.289,0,0,0,4.185,1.981,7.426,7.426,0,0,0,6.091-2.8,14.73,14.73,0,0,0,3.083-7.893l.179-2.919a10.312,10.312,0,0,0-1.519-5.987A5.332,5.332,0,0,0,85.4-27.045q-4.527-.119-7.148,4.438a16.58,16.58,0,0,0-2,6.374A24.938,24.938,0,0,0,76.141-12.152Zm59.546-3.842a26.533,26.533,0,0,1-2.576,8.757A14.943,14.943,0,0,1,128.076-1.3,11.637,11.637,0,0,1,121.241.625a10.11,10.11,0,0,1-7.923-3.574l-2.889,15.339H103.34l6.744-41.618a28.123,28.123,0,0,1-1.655-5.719,13.4,13.4,0,0,1,.354-6.247,16.2,16.2,0,0,1,2.3-4.715s.126,4.629,1.608,7.431,1.6,2.693,3.32,2.777,2.562-2.44,2.562-2.44a11.462,11.462,0,0,0,.684-5.04,9.328,9.328,0,0,0-1.522-4.249s4.287.478,5.044,2.765.493,2.839,1.117,4.471c.994,2.593,1.19,3.289,2.287,3.053s.313-2,1.1-4,.93-1.661,1.058-3.968-.987-3.946-.548-6.259a3.972,3.972,0,0,1,2.3-2.992,29.745,29.745,0,0,0,1.009,4.772c.771,2.574,1.679,3.5,2.075,5.525.43,2.188-.714,3.551-.075,6.4s1.044,1.857,1.774,4.4a19.237,19.237,0,0,1,1.144,5.778,49.664,49.664,0,0,1-.132,7.165C135.81-17.442,135.845-17.663,135.686-15.995Zm-6.97-.625.149-2.174a10.556,10.556,0,0,0-1.266-5.957,4.64,4.64,0,0,0-4.066-2.174q-3.991-.119-6.91,3.664l-2.5,14.386a5.459,5.459,0,0,0,5.451,3.723,7.2,7.2,0,0,0,5.912-2.74Q127.883-10.723,128.717-16.62Z" transform="translate(1687.838 1023.926)" fill="#fff"/>
    <text id="Drop" stroke-width="1" fill="#fff" stroke="#ce4141" transform="translate(1687.5 1023.926)" font-size="61" font-family="Roboto-MediumItalic, Roboto" font-weight="500" font-style="italic" letter-spacing="0.066em"><tspan x="0" y="0">Drop</tspan></text>
  </g>
</symbol><symbol id="icon-map-pointer-pellets" viewBox="0 0 512 512">
<g>
	<g>
		<path d="M256,0C153.755,0,70.573,83.182,70.573,185.426c0,126.888,165.939,313.167,173.004,321.035
			c6.636,7.391,18.222,7.378,24.846,0c7.065-7.868,173.004-194.147,173.004-321.035C441.425,83.182,358.244,0,256,0z M256,278.719
			c-51.442,0-93.292-41.851-93.292-93.293S204.559,92.134,256,92.134s93.291,41.851,93.291,93.293S307.441,278.719,256,278.719z"/>
	</g>
</g>
<g>
</g>
<g>
</g>
<g>
</g>
<g>
</g>
<g>
</g>
<g>
</g>
<g>
</g>
<g>
</g>
<g>
</g>
<g>
</g>
<g>
</g>
<g>
</g>
<g>
</g>
<g>
</g>
<g>
</g>
</symbol><symbol id="icon-map-pointer" viewBox="0 0 23.5 31.333">
  <g id="Group_2" data-name="Group 2" transform="translate(-1021 -763)">
    <path id="path" d="M24.2,39.5a.979.979,0,0,0,.812.432h0a.979.979,0,0,0,.812-.432L35.06,25.77a11,11,0,0,0,1.689-5.852A11.556,11.556,0,0,0,25,8.595a11.556,11.556,0,0,0-11.75,11.323A11.023,11.023,0,0,0,14.962,25.8ZM25,10.552a9.6,9.6,0,0,1,9.792,9.365c0,1.7-8.079,2.628-8.971,4.051L25.008,37.2,24.2,23.968c-.913-1.451-8.989-2.35-8.989-4.051A9.6,9.6,0,0,1,25,10.552Z" transform="translate(1007.751 754.405)" fill="#f36516"/>
    <path id="path-2" data-name="path" d="M25.132,25.387A5.388,5.388,0,1,0,19.564,20,5.485,5.485,0,0,0,25.132,25.387Zm0-8.813A3.432,3.432,0,1,1,21.522,20,3.526,3.526,0,0,1,25.132,16.574Z" transform="translate(1007.619 754.28)" fill="#f36516"/>
  </g>
</symbol><symbol id="icon-money" viewBox="0 0 792 792">
<style>
.cls-1 {
	fill: white;
}
</style>
<g>
	<path class="cls-1" d="M650.462,465.447H309.938c32.586-19.855,69.08-37.412,105.021-54.372c56.945-27.025,111.318-52.947,149.834-87.326h85.67   c8.871,0,16.088-7.17,16.088-16.086c0-8.871-7.17-16.086-16.088-16.086h-56.439c0.139-0.184,0.322-0.368,0.459-0.552   c37.965-54.602,42.33-122.164,11.721-180.718C570.583,42.192,495.206,0,409.489,0c-74.457,0-134.298,21.556-177.961,64.023   c-6.388,6.159-6.526,16.408-0.321,22.797c6.296,6.297,16.316,6.572,22.75,0.276c37.412-36.447,89.762-54.969,155.532-54.969   c73.721,0,138.158,35.62,168.172,93.071c25.324,48.489,21.83,102.263-9.607,147.489c-4.596,6.572-10.111,12.823-16.131,18.844   H141.537c-8.917,0.046-16.086,7.216-16.086,16.086c0,8.87,7.17,16.086,16.086,16.086h369.986   c-31.668,20.729-70.273,39.205-110.352,58.233c-52.075,24.589-105.619,50.281-148.317,83.465H141.537   c-8.871,0-16.086,7.17-16.086,16.086c0,8.871,7.17,16.087,16.086,16.087h77.95c-41.181,49.086-54.74,112.374-33.644,170.285   C214.292,746.039,296.011,792,405.444,792c2.85,0,5.654,0,8.504-0.092c68.619-1.425,124.645-20.177,166.471-55.659   c6.801-5.745,7.582-15.902,1.838-22.612c-5.654-6.711-15.811-7.722-22.658-1.885c-36.035,30.519-85.258,46.696-146.387,48.029   c-98.356,1.057-172.951-36.355-197.173-102.86c-20.131-55.199-1.011-117.063,48.305-159.347h386.073   c8.869,0,16.086-7.17,16.086-16.087C666.55,472.617,659.333,465.447,650.462,465.447z" fill="#FFFFFF"/>
</g>
</symbol><symbol id="icon-phone" viewBox="0 0 463.009 463.009"><g><g>
    <path d="m462.692,381.085c-1.472-11.126-7.895-20.719-17.62-26.318l-114.226-65.767c-13.99-8.055-31.738-5.71-43.157,5.708l-22.499,22.499c-5.987,5.988-15.459,6.518-22.028,1.231-17.737-14.272-35.201-29.979-51.906-46.685-16.705-16.705-32.412-34.168-46.685-51.906-5.287-6.57-4.758-16.041 1.231-22.029l22.498-22.499c11.418-11.417 13.766-29.163 5.709-43.156l-65.767-114.226c-5.6-9.726-15.192-16.148-26.318-17.62-11.127-1.475-22.06,2.236-29.996,10.172l-33.901,33.902c-23.661,23.662-24.041,66.944-1.07,121.875 22.088,52.818 63.308,110.962 116.065,163.721 52.759,52.758 110.903,93.978 163.722,116.066 27.039,11.307 51.253,16.957 71.697,16.956 21.088,0 38.163-6.013 50.178-18.027l33.901-33.902c7.935-7.936 11.643-18.869 10.172-29.995zm-139.33-79.086l114.226,65.767c5.649,3.252 9.379,8.824 10.233,15.286 0.718,5.423-0.691,10.763-3.885,15.066l-151.805-86.638 6.165-6.165c6.631-6.631 16.941-7.994 25.066-3.316zm-243.406-286.811c6.463,0.855 12.034,4.585 15.286,10.234l65.767,114.226c4.68,8.127 3.316,18.435-3.315,25.065l-5.663,5.663-87.114-151.303c3.561-2.637 7.82-4.069 12.26-4.069 0.921-1.77636e-15 1.85,0.061 2.779,0.184zm328.055,419.187c-18.798,18.798-57.244,18.01-105.48-2.162-51.06-21.352-107.491-61.424-158.901-112.833-51.41-51.41-91.482-107.842-112.834-158.901-20.173-48.237-20.96-86.683-2.162-105.482l25.167-25.168 87.245,151.532-5.851,5.851c-11.415,11.416-12.409,29.488-2.311,42.04 14.609,18.156 30.68,36.024 47.764,53.108 17.086,17.085 34.954,33.156 53.109,47.765 12.55,10.098 30.622,9.105 42.04-2.312l5.338-5.338 152.016,86.759-25.14,25.141z" data-original="#000000" class="active-path" data-old_color="#000000" fill="#28C435"/>
  </g></g> </symbol><symbol id="icon-star_24px" viewBox="0 0 13.418 12.747">
  <path id="ic_grade_24px" d="M8.709,12.244l4.146,2.5-1.1-4.716,3.663-3.173-4.824-.409L8.709,2,6.824,6.448,2,6.857l3.663,3.173-1.1,4.716Z" transform="translate(-2 -2)" fill="#ffd500"/>
</symbol><symbol id="icon-three-checkmarks" viewBox="0 0 12.724 26.748">
  <g id="Group_388" data-name="Group 388" transform="translate(-1010 -427.965)">
    <path id="CHECK_MARK" data-name="CHECK MARK" d="M22.019,14.451l-7.671,7.671-3.7-3.7a.4.4,0,0,0-.562.562l3.976,3.976a.4.4,0,0,0,.562,0l7.952-7.952a.4.4,0,0,0-.562-.562Z" transform="translate(1000.026 422.63)"/>
    <path id="CHECK_MARK-2" data-name="CHECK MARK" d="M22.019,14.451l-7.671,7.671-3.7-3.7a.4.4,0,0,0-.562.562l3.976,3.976a.4.4,0,0,0,.562,0l7.952-7.952a.4.4,0,0,0-.562-.562Z" transform="translate(1000.026 431.63)"/>
    <path id="CHECK_MARK-3" data-name="CHECK MARK" d="M22.019,14.451l-7.671,7.671-3.7-3.7a.4.4,0,0,0-.562.562l3.976,3.976a.4.4,0,0,0,.562,0l7.952-7.952a.4.4,0,0,0-.562-.562Z" transform="translate(1000.026 413.63)"/>
  </g>
</symbol></svg><!-- endinject -->